<svg height="50pt" viewBox="8 -2 70 70" width="50pt" xmlns="http://www.w3.org/2000/svg">
    <defs>
        <style>.a{fill:#f24235;}</style>
    </defs>
    <path class="a"
          d="M55.36475,34.01318l-.03565.03516L58.165,36.88379l.03516.03564,5.935-5.93554a1.98594,1.98594,0,0,0,0-2.87061l-2.5-2.5-.01477-.015L62.835,24.38379a6.20247,6.20247,0,0,0-8.77-8.77051L43.80005,25.87817l-4.75122-4.75171a7.85014,7.85014,0,0,0-2.31348-5.11328,7.91944,7.91944,0,0,0-7.03906-2.61425c-.09766.00732-.19434.01611-.2915.02441-1.209.10693-2.35059.2085-4.36963-1.81006L22.16309,8.74121l-.5127,4.10742c0,.02735-.00537.09522-.01367.19971a25.81525,25.81525,0,0,0,.187,5.86279A14.63337,14.63337,0,0,0,25.665,27.28369a7.86386,7.86386,0,0,0,4.89062,2.291l4.77344,4.77392-3.56445,3.56494a2.21842,2.21842,0,0,0-.40967.51319l-5.8999,11.89941a2.08664,2.08664,0,0,0,1.84472,2.97217,2.97874,2.97874,0,0,0,.92237-.20508l11.90332-5.90137a1.05226,1.05226,0,0,0,.51562-.41357L44.2,43.219l8.365,8.36451a5.98961,5.98961,0,0,0,8.47022-8.47022l-8.39991-8.3999-.03515-.03565-.02149.02149-.02942-.02936,6.25031-6.15063,1.0296,1.02911ZM37.91309,25.73242l3.01074,3.01074-2.71436,2.71436-.02246-.022-.01465.01465-2.98828-2.98829a7.18695,7.18695,0,0,0,2.729-2.72949ZM42.3335,30.104l-1.30909-1.30908.00879-.00879,1.30957,1.30908Zm4.59326,4.49756-.03516-.03564-2.79248,2.79346-.03564.03515,1.427,1.42651-.01441.01441-1.37988-1.3794-.03515-.03564-2.79249,2.79346-.03564.03515.04785.04786-3.31055,3.31054-6.25683,3.12891,3.12744-6.15869,3.35742-3.45557.03174.03174,2.79443-2.79541.01221.01221,2.79688-2.79737.01318.01319,2.793-2.79346.03564-.03516-.00683-.00683,5.83886-5.83887.02051.02051.02637-.02637,3.03516,3.03564L49.69678,31.835l-.03565.03516.02222.02221-2.73242,2.7334Zm8.34717-14.63281-.03516-.03564-.02686.02685-1.27636-1.27637L54,18.61914l1.36475,1.36475.03515.03564,1.63526-1.63574a2.37635,2.37635,0,0,1,3.12988,0,2.18438,2.18438,0,0,1,0,3.12939l-1.6001,1.6001-.01562.01514-.04786-.05225-.06005.06006Zm3.79882,3.72314.80323.80323-.02686.0332ZM33.2,39.34851Zm25.55,8.00012a1.93,1.93,0,0,1-.585,1.36475,2.086,2.086,0,0,1-2.73,0l-8.3999-8.3999-.01068-.01081L49.75366,37.573,58.165,45.98389A1.93,1.93,0,0,1,58.75,47.34863Z"/>
</svg>